<?xml version="1.0" encoding="UTF-8"?>
<svg version="1.1" xmlns="http://www.w3.org/2000/svg" width="538" height="117">
<path d="M0 0 C3.1309867 2.52498928 3.48649122 5.75205405 3.9375 9.5625 C4.08628212 13.90197837 4.05658127 18.22264932 3.9375 22.5625 C4.18918945 21.99217041 4.44087891 21.42184082 4.70019531 20.83422852 C5.84753364 18.25744966 7.01712281 15.69139135 8.1875 13.125 C8.58324219 12.22716797 8.97898437 11.32933594 9.38671875 10.40429688 C9.77988281 9.55029297 10.17304688 8.69628906 10.578125 7.81640625 C10.93422852 7.02564697 11.29033203 6.2348877 11.65722656 5.42016602 C12.9375 3.5625 12.9375 3.5625 16.9375 2.5625 C16.9375 10.4825 16.9375 18.4025 16.9375 26.5625 C17.5975 26.5625 18.2575 26.5625 18.9375 26.5625 C19.02 25.923125 19.1025 25.28375 19.1875 24.625 C19.86604216 21.85428618 20.74477462 19.8451279 22 17.3125 C23.96074504 13.13283354 24.0665492 10.05675451 23.8125 5.515625 C23.9375 3.5625 23.9375 3.5625 25.9375 1 C26.5975 0.525625 27.2575 0.05125 27.9375 -0.4375 C28.5975 -0.1075 29.2575 0.2225 29.9375 0.5625 C30.7404438 8.41987866 27.93884836 14.1387753 24.6875 21.1875 C24.19636719 22.29351562 23.70523438 23.39953125 23.19921875 24.5390625 C20.80287978 29.8557399 18.40133367 34.86158287 14.9375 39.5625 C14.2775 39.2325 13.6175 38.9025 12.9375 38.5625 C12.91244385 38.00264404 12.8873877 37.44278809 12.86157227 36.8659668 C12.74546255 34.32708695 12.6228042 31.78856447 12.5 29.25 C12.46068359 28.36892578 12.42136719 27.48785156 12.38085938 26.58007812 C12.33896484 25.73251953 12.29707031 24.88496094 12.25390625 24.01171875 C12.21724854 23.23143311 12.18059082 22.45114746 12.14282227 21.6472168 C11.99624737 19.36920899 11.99624737 19.36920899 10.9375 16.5625 C10.68057373 17.15264893 10.42364746 17.74279785 10.15893555 18.35083008 C8.98820152 21.02878865 7.80674175 23.70188184 6.625 26.375 C6.22087891 27.30376953 5.81675781 28.23253906 5.40039062 29.18945312 C5.00400391 30.08212891 4.60761719 30.97480469 4.19921875 31.89453125 C3.83787842 32.71671143 3.47653809 33.5388916 3.10424805 34.38598633 C1.93280773 36.57125321 0.85544048 38.00056361 -1.0625 39.5625 C-1.7225 39.5625 -2.3825 39.5625 -3.0625 39.5625 C-2.9903125 38.86769531 -2.918125 38.17289063 -2.84375 37.45703125 C-1.87359294 26.82572679 -1.96417209 16.22880956 -2.0625 5.5625 C-5.17582248 6.23118314 -5.17582248 6.23118314 -6.25 8.625 C-6.518125 9.264375 -6.78625 9.90375 -7.0625 10.5625 C-7.7225 10.5625 -8.3825 10.5625 -9.0625 10.5625 C-8.58767335 6.38402545 -8.02190617 3.63572948 -5.0625 0.5625 C-2.0625 -0.4375 -2.0625 -0.4375 0 0 Z " fill="#F2125E" transform="translate(492.0625,33.4375)"/>
<path d="M0 0 C-0.33 0.99 -0.66 1.98 -1 3 C-3.1875 3.59765625 -3.1875 3.59765625 -6 4.0625 C-13.32307713 5.89326928 -16.58310254 10.15170059 -21 16 C-21.77859375 16.84949219 -22.5571875 17.69898437 -23.359375 18.57421875 C-25.71175886 21.44601584 -27.0919618 23.38609923 -28 27 C-26.89043392 32.47513944 -23.88993668 37.2935317 -21 42 C-20.01 42 -19.02 42 -18 42 C-17.67 41.34 -17.34 40.68 -17 40 C-16.34 40 -15.68 40 -15 40 C-15.35052635 43.15473719 -15.86519076 44.8233534 -17.8125 47.375 C-20 49 -20 49 -21.98925781 48.82641602 C-24.53375884 47.78062486 -25.07257156 46.80563841 -26.359375 44.40234375 C-26.75253906 43.68369141 -27.14570313 42.96503906 -27.55078125 42.22460938 C-27.94652344 41.46986328 -28.34226563 40.71511719 -28.75 39.9375 C-29.16121094 39.17888672 -29.57242188 38.42027344 -29.99609375 37.63867188 C-31.00926383 35.76548532 -32.0062056 33.88353767 -33 32 C-33.66 35.96 -34.32 39.92 -35 44 C-34.01 44 -33.02 44 -32 44 C-32.66 45.32 -33.32 46.64 -34 48 C-37.3 48 -40.6 48 -44 48 C-43.30040161 46.97386597 -43.30040161 46.97386597 -42.58666992 45.92700195 C-40.79109549 42.61462438 -40.21847675 39.88092491 -39.61328125 36.16796875 C-39.39736328 34.87568359 -39.18144531 33.58339844 -38.95898438 32.25195312 C-38.74326112 30.89717178 -38.5277692 29.54235357 -38.3125 28.1875 C-38.08624956 26.81299216 -37.85904554 25.43864093 -37.63085938 24.06445312 C-37.07784308 20.71105642 -36.53459592 17.35637405 -36 14 C-36.928125 14.309375 -37.85625 14.61875 -38.8125 14.9375 C-40.875 15.625 -42.9375 16.3125 -45 17 C-43.92598892 14.08482708 -43.22189824 12.22189824 -41 10 C-37.31975395 9.72370525 -33.69505443 9.9140685 -30 10 C-30.33 13.96 -30.66 17.92 -31 22 C-30.35933594 21.05898438 -29.71867188 20.11796875 -29.05859375 19.1484375 C-17.54218831 2.45177359 -17.54218831 2.45177359 -8.25 0.625 C-5.44242335 0.22503796 -2.83826134 0 0 0 Z " fill="#F2125E" transform="translate(265,24)"/>
<path d="M0 0 C1.74216797 0.15275391 1.74216797 0.15275391 3.51953125 0.30859375 C4.39996094 0.39238281 5.28039062 0.47617187 6.1875 0.5625 C5.86007812 1.78839844 5.53265625 3.01429687 5.1953125 4.27734375 C3.87250812 10.22996345 3.96736297 16.05452571 4.0625 22.125 C4.07152344 23.22908203 4.08054687 24.33316406 4.08984375 25.47070312 C4.11319872 28.1682017 4.14594946 30.86523077 4.1875 33.5625 C6.6625 33.0675 6.6625 33.0675 9.1875 32.5625 C8.81838042 35.23861698 8.33894437 36.4056469 6.4375 38.375 C4.1875 39.5625 4.1875 39.5625 1.5 39.375 C-0.8125 38.5625 -0.8125 38.5625 -1.8125 36.5625 C-2.03872081 34.85886178 -2.22138473 33.14921299 -2.375 31.4375 C-2.50068359 30.07238281 -2.50068359 30.07238281 -2.62890625 28.6796875 C-2.68949219 27.98101562 -2.75007813 27.28234375 -2.8125 26.5625 C-5.1225 26.5625 -7.4325 26.5625 -9.8125 26.5625 C-10.121875 27.51125 -10.43125 28.46 -10.75 29.4375 C-11.8125 32.5625 -11.8125 32.5625 -12.8125 34.5625 C-12.1525 34.8925 -11.4925 35.2225 -10.8125 35.5625 C-11.4725 36.5525 -12.1325 37.5425 -12.8125 38.5625 C-15.4140625 38.85546875 -15.4140625 38.85546875 -18.4375 38.75 C-19.94183594 38.70939453 -19.94183594 38.70939453 -21.4765625 38.66796875 C-22.24742187 38.63316406 -23.01828125 38.59835938 -23.8125 38.5625 C-23.4825 37.5725 -23.1525 36.5825 -22.8125 35.5625 C-22.07 35.211875 -21.3275 34.86125 -20.5625 34.5 C-13.90922368 29.81246441 -11.71793507 19.92015466 -9.12109375 12.54296875 C-7.7419589 9.40183474 -6.0621116 7.135523 -3.8125 4.5625 C-9.07409459 3.92084212 -11.49842849 5.35672999 -15.4921875 8.46875 C-15.92789062 8.8296875 -16.36359375 9.190625 -16.8125 9.5625 C-16.32648601 4.09484266 -16.32648601 4.09484266 -14.0625 1.75 C-9.4058809 -0.70766008 -5.15275032 -0.46843185 0 0 Z M-0.8125 5.5625 C0.1875 7.5625 0.1875 7.5625 0.1875 7.5625 Z M-1.8125 7.5625 C-2.63261312 9.12101755 -3.44326213 10.68451716 -4.25 12.25 C-4.92869141 13.55517578 -4.92869141 13.55517578 -5.62109375 14.88671875 C-6.77241928 17.47248264 -7.37570753 19.77606528 -7.8125 22.5625 C-5.8325 22.5625 -3.8525 22.5625 -1.8125 22.5625 C-1.4825 17.6125 -1.1525 12.6625 -0.8125 7.5625 C-1.1425 7.5625 -1.4725 7.5625 -1.8125 7.5625 Z " fill="#F2125E" transform="translate(472.8125,33.4375)"/>
<path d="M0 0 C2.15547232 2.73201203 2.16952141 5.21767838 2.28515625 8.62890625 C0.75585335 13.4079778 -1.72597301 15.95200823 -5.796875 18.66015625 C-8.7774754 20.16563262 -11.39763679 20.42581195 -14.71484375 20.62890625 C-15.04484375 24.25890625 -15.37484375 27.88890625 -15.71484375 31.62890625 C-14.72484375 31.62890625 -13.73484375 31.62890625 -12.71484375 31.62890625 C-13.37484375 32.94890625 -14.03484375 34.26890625 -14.71484375 35.62890625 C-17.68484375 35.62890625 -20.65484375 35.62890625 -23.71484375 35.62890625 C-22.71484375 31.62890625 -22.71484375 31.62890625 -21.71264648 29.18994141 C-20.72205754 26.6474217 -20.19436222 24.33926952 -19.75 21.65234375 C-19.58951172 20.73453125 -19.42902344 19.81671875 -19.26367188 18.87109375 C-18.93827314 16.9526787 -18.6179952 15.03338834 -18.30273438 13.11328125 C-18.14095703 12.19804688 -17.97917969 11.2828125 -17.8125 10.33984375 C-17.67336182 9.50759277 -17.53422363 8.6753418 -17.39086914 7.81787109 C-16.61151584 5.2943313 -15.82521128 4.20046331 -13.71484375 2.62890625 C-12.72484375 2.62890625 -11.73484375 2.62890625 -10.71484375 2.62890625 C-11.37484375 6.91890625 -12.03484375 11.20890625 -12.71484375 15.62890625 C-6.90662337 15.30775338 -6.90662337 15.30775338 -4.77734375 12.44140625 C-3.46575771 8.96956085 -3.54507153 7.13822292 -4.71484375 3.62890625 C-8.4080391 1.17487513 -11.29135445 1.5059784 -15.52734375 2.0703125 C-18.58146404 2.85020393 -20.44696003 4.49847003 -22.71484375 6.62890625 C-23.37484375 6.62890625 -24.03484375 6.62890625 -24.71484375 6.62890625 C-23.74086109 3.12256868 -22.8239742 1.7181948 -19.96484375 -0.62109375 C-13.84042188 -3.91885937 -5.7739158 -4.61650215 0 0 Z " fill="#F2125E" transform="translate(39.71484375,36.37109375)"/>
<path d="M0 0 C0.33 0.33 0.66 0.66 1 1 C0.71269945 3.33944736 0.38063221 5.6739143 0 8 C-0.99 8 -1.98 8 -3 8 C-3.33 6.02 -3.66 4.04 -4 2 C-6.31 2.66 -8.62 3.32 -11 4 C-11.59130428 6.65934047 -11.59130428 6.65934047 -11 10 C-9.39038351 12.20530133 -7.63253233 14.11728169 -5.7265625 16.0703125 C-2.96364092 19.15828368 -2.06380176 21.29818063 -1.6875 25.4375 C-2.15223066 30.73542952 -3.71899152 32.92278833 -7.75 36.3125 C-11.61487763 38.31926339 -13.70512629 38.70279752 -18 38 C-21 35.8125 -21 35.8125 -23 33 C-23.0625 30.3125 -23.0625 30.3125 -22 28 C-19.9375 26.6875 -19.9375 26.6875 -18 26 C-17.34 28.31 -16.68 30.62 -16 33 C-13.66705225 33.04241723 -11.33297433 33.04092937 -9 33 C-7.68031899 31.87406506 -7.68031899 31.87406506 -7.5 29 C-7.51943174 24.28780206 -10.31695377 21.53817907 -13.2734375 18.11328125 C-16.19222593 14.54073704 -17.01203516 12.75821505 -16.9375 8.0625 C-16.25243735 3.7425755 -14.53143183 1.64857387 -11 -1 C-6.83620311 -2.60146034 -4.04784069 -1.65593483 0 0 Z " fill="#F2125E" transform="translate(451,35)"/>
<path d="M0 0 C0.33 1.65 0.66 3.3 1 5 C1.886875 4.175 2.77375 3.35 3.6875 2.5 C6.01307407 0.53900524 6.74787194 0.02740522 9.875 -0.3125 C10.926875 -0.1578125 10.926875 -0.1578125 12 0 C12.39363688 7.74152536 10.94210433 14.52058632 9 22 C9.66 22 10.32 22 11 22 C11.66 20.35 12.32 18.7 13 17 C13.33 17 13.66 17 14 17 C14.3125 19.1875 14.3125 19.1875 14 22 C11.75 24.8125 11.75 24.8125 9 27 C7.68 27 6.36 27 5 27 C4.69928135 19.44862068 5.57374434 12.41143564 7 5 C1.83774949 9.74368966 -0.67500255 13.8802898 -1.875 20.75 C-2.328125 23.07421875 -2.328125 23.07421875 -3 25 C-5.625 26.5625 -5.625 26.5625 -8 27 C-7.855625 25.741875 -7.71125 24.48375 -7.5625 23.1875 C-6.96183814 17.79870505 -6.47449461 12.40116209 -6 7 C-6.33 7.66 -6.66 8.32 -7 9 C-7.66 9 -8.32 9 -9 9 C-8.6507442 5.85669777 -8.16074267 4.20508548 -6.1875 1.6875 C-4 0 -4 0 0 0 Z " fill="#F2125E" transform="translate(276,46)"/>
<path d="M0 0 C0.33 1.65 0.66 3.3 1 5 C1.886875 4.175 2.77375 3.35 3.6875 2.5 C6.01307407 0.53900524 6.74787194 0.02740522 9.875 -0.3125 C10.926875 -0.1578125 10.926875 -0.1578125 12 0 C12.39363688 7.74152536 10.94210433 14.52058632 9 22 C9.66 22 10.32 22 11 22 C11.66 20.35 12.32 18.7 13 17 C13.33 17 13.66 17 14 17 C14.3125 19.1875 14.3125 19.1875 14 22 C11.75 24.8125 11.75 24.8125 9 27 C7.68 27 6.36 27 5 27 C4.69928135 19.44862068 5.57374434 12.41143564 7 5 C1.83774949 9.74368966 -0.67500255 13.8802898 -1.875 20.75 C-2.328125 23.07421875 -2.328125 23.07421875 -3 25 C-5.625 26.5625 -5.625 26.5625 -8 27 C-7.855625 25.741875 -7.71125 24.48375 -7.5625 23.1875 C-6.96183814 17.79870505 -6.47449461 12.40116209 -6 7 C-6.33 7.66 -6.66 8.32 -7 9 C-7.66 9 -8.32 9 -9 9 C-8.6507442 5.85669777 -8.16074267 4.20508548 -6.1875 1.6875 C-4 0 -4 0 0 0 Z " fill="#F2125E" transform="translate(187,46)"/>
<path d="M0 0 C0.33 1.65 0.66 3.3 1 5 C1.886875 4.175 2.77375 3.35 3.6875 2.5 C6.01307407 0.53900524 6.74787194 0.02740522 9.875 -0.3125 C10.926875 -0.1578125 10.926875 -0.1578125 12 0 C12.39363688 7.74152536 10.94210433 14.52058632 9 22 C9.66 22 10.32 22 11 22 C11.66 20.35 12.32 18.7 13 17 C13.33 17 13.66 17 14 17 C14.3125 19.1875 14.3125 19.1875 14 22 C11.75 24.8125 11.75 24.8125 9 27 C7.68 27 6.36 27 5 27 C4.69928135 19.44862068 5.57374434 12.41143564 7 5 C1.83774949 9.74368966 -0.67500255 13.8802898 -1.875 20.75 C-2.328125 23.07421875 -2.328125 23.07421875 -3 25 C-5.625 26.5625 -5.625 26.5625 -8 27 C-7.855625 25.741875 -7.71125 24.48375 -7.5625 23.1875 C-6.96183814 17.79870505 -6.47449461 12.40116209 -6 7 C-6.33 7.66 -6.66 8.32 -7 9 C-7.66 9 -8.32 9 -9 9 C-8.6507442 5.85669777 -8.16074267 4.20508548 -6.1875 1.6875 C-4 0 -4 0 0 0 Z " fill="#F2125E" transform="translate(69,46)"/>
<path d="M0 0 C1.22589844 0.01353516 1.22589844 0.01353516 2.4765625 0.02734375 C3.41628906 0.04474609 3.41628906 0.04474609 4.375 0.0625 C4.24222656 0.82433594 4.10945313 1.58617187 3.97265625 2.37109375 C2.90841395 8.5934155 2.0031322 14.78117797 1.375 21.0625 C2.035 19.7425 2.695 18.4225 3.375 17.0625 C4.035 17.0625 4.695 17.0625 5.375 17.0625 C5.05779301 20.55177692 4.71192769 22.62100854 2.5625 25.4375 C0.375 27.0625 0.375 27.0625 -3.625 27.0625 C-4.285 25.4125 -4.945 23.7625 -5.625 22.0625 C-6.5325 22.908125 -7.44 23.75375 -8.375 24.625 C-11.30031382 27.0800506 -11.30031382 27.0800506 -13.9375 26.9375 C-15.625 26.0625 -15.625 26.0625 -16.625 25.0625 C-17.21093635 16.71290696 -15.53740255 11.02379236 -10.0625 4.625 C-6.70355603 0.9337734 -5.0037545 -0.07148221 0 0 Z M-5.625 4.0625 C-9.83477332 8.39609019 -11.72888968 12.37966941 -11.75 18.375 C-11.70875 19.591875 -11.6675 20.80875 -11.625 22.0625 C-6.45707892 19.99533157 -4.89207448 16.35993603 -2.54296875 11.6328125 C-1.57753381 8.92959465 -1.44645803 6.90896914 -1.625 4.0625 C-2.945 4.0625 -4.265 4.0625 -5.625 4.0625 Z M-4.625 19.0625 C-3.625 21.0625 -3.625 21.0625 -3.625 21.0625 Z " fill="#F2125E" transform="translate(361.625,45.9375)"/>
<path d="M0 0 C1.22589844 0.01353516 1.22589844 0.01353516 2.4765625 0.02734375 C3.41628906 0.04474609 3.41628906 0.04474609 4.375 0.0625 C4.24222656 0.82433594 4.10945313 1.58617187 3.97265625 2.37109375 C2.90841395 8.5934155 2.0031322 14.78117797 1.375 21.0625 C2.035 19.7425 2.695 18.4225 3.375 17.0625 C4.035 17.0625 4.695 17.0625 5.375 17.0625 C5.05779301 20.55177692 4.71192769 22.62100854 2.5625 25.4375 C0.375 27.0625 0.375 27.0625 -3.625 27.0625 C-4.285 25.4125 -4.945 23.7625 -5.625 22.0625 C-6.5325 22.908125 -7.44 23.75375 -8.375 24.625 C-11.30031382 27.0800506 -11.30031382 27.0800506 -13.9375 26.9375 C-15.625 26.0625 -15.625 26.0625 -16.625 25.0625 C-17.21093635 16.71290696 -15.53740255 11.02379236 -10.0625 4.625 C-6.70355603 0.9337734 -5.0037545 -0.07148221 0 0 Z M-5.625 4.0625 C-9.83477332 8.39609019 -11.72888968 12.37966941 -11.75 18.375 C-11.70875 19.591875 -11.6675 20.80875 -11.625 22.0625 C-6.45707892 19.99533157 -4.89207448 16.35993603 -2.54296875 11.6328125 C-1.57753381 8.92959465 -1.44645803 6.90896914 -1.625 4.0625 C-2.945 4.0625 -4.265 4.0625 -5.625 4.0625 Z M-4.625 19.0625 C-3.625 21.0625 -3.625 21.0625 -3.625 21.0625 Z " fill="#F2125E" transform="translate(169.625,45.9375)"/>
<path d="M0 0 C1.22589844 0.01353516 1.22589844 0.01353516 2.4765625 0.02734375 C3.41628906 0.04474609 3.41628906 0.04474609 4.375 0.0625 C4.24222656 0.82433594 4.10945313 1.58617187 3.97265625 2.37109375 C2.90841395 8.5934155 2.0031322 14.78117797 1.375 21.0625 C2.035 19.7425 2.695 18.4225 3.375 17.0625 C4.035 17.0625 4.695 17.0625 5.375 17.0625 C5.05779301 20.55177692 4.71192769 22.62100854 2.5625 25.4375 C0.375 27.0625 0.375 27.0625 -3.625 27.0625 C-4.285 25.4125 -4.945 23.7625 -5.625 22.0625 C-6.5325 22.908125 -7.44 23.75375 -8.375 24.625 C-11.30031382 27.0800506 -11.30031382 27.0800506 -13.9375 26.9375 C-15.625 26.0625 -15.625 26.0625 -16.625 25.0625 C-17.21093635 16.71290696 -15.53740255 11.02379236 -10.0625 4.625 C-6.70355603 0.9337734 -5.0037545 -0.07148221 0 0 Z M-5.625 4.0625 C-9.83477332 8.39609019 -11.72888968 12.37966941 -11.75 18.375 C-11.70875 19.591875 -11.6675 20.80875 -11.625 22.0625 C-6.45707892 19.99533157 -4.89207448 16.35993603 -2.54296875 11.6328125 C-1.57753381 8.92959465 -1.44645803 6.90896914 -1.625 4.0625 C-2.945 4.0625 -4.265 4.0625 -5.625 4.0625 Z M-4.625 19.0625 C-3.625 21.0625 -3.625 21.0625 -3.625 21.0625 Z " fill="#F2125E" transform="translate(130.625,45.9375)"/>
<path d="M0 0 C1.93670826 5.49915795 0.07460499 11.45552825 -0.84106445 17.05200195 C-1.18317971 19.1608689 -1.50347662 21.27226372 -1.82226562 23.38476562 C-4.44122638 40.0564941 -4.44122638 40.0564941 -10.3125 46.5625 C-13.81614929 48.43654497 -16.07857319 48.49909069 -20 48 C-22.4375 46.9375 -22.4375 46.9375 -24 45 C-24.25 41.3125 -24.25 41.3125 -24 38 C-22.02 37.505 -22.02 37.505 -20 37 C-18.515 40.465 -18.515 40.465 -17 44 C-14.525 43.505 -14.525 43.505 -12 43 C-9.28436617 35.07396548 -7.95213202 27.15839541 -6.8125 18.875 C-6.63525391 17.63234375 -6.45800781 16.3896875 -6.27539062 15.109375 C-5.84340709 12.07381499 -5.41844071 9.03745122 -5 6 C-5.99 7.485 -5.99 7.485 -7 9 C-7.66 9 -8.32 9 -9 9 C-8.6507442 5.85669777 -8.16074267 4.20508548 -6.1875 1.6875 C-4 0 -4 0 0 0 Z " fill="#F2125E" transform="translate(342,46)"/>
<path d="M0 0 C0.33 0.99 0.66 1.98 1 3 C0.45730469 3.1959375 -0.08539063 3.391875 -0.64453125 3.59375 C-1.35996094 3.8928125 -2.07539062 4.191875 -2.8125 4.5 C-3.87404297 4.91765625 -3.87404297 4.91765625 -4.95703125 5.34375 C-11.38169839 10.55227556 -11.20031075 21.94051189 -12.1875 29.5 C-12.36474609 30.799375 -12.54199219 32.09875 -12.72460938 33.4375 C-13.15806363 36.62397451 -13.58293879 39.81134565 -14 43 C-13.54625 42.34 -13.0925 41.68 -12.625 41 C-12.08875 40.34 -11.5525 39.68 -11 39 C-10.34 39 -9.68 39 -9 39 C-10.19268219 43.37316802 -11.34752679 46.20693225 -15 49 C-16.32 49 -17.64 49 -19 49 C-19.25555917 41.06787406 -18.54926654 33.62161213 -17.1875 25.8125 C-17.02185547 24.78447266 -16.85621094 23.75644531 -16.68554688 22.69726562 C-14.25885184 8.38434361 -14.25885184 8.38434361 -9.75 3.625 C-6.49535618 1.70180138 -3.6713432 0.86384546 0 0 Z " fill="#F2125E" transform="translate(121,24)"/>
<path d="M0 0 C1.4540625 0.0309375 1.4540625 0.0309375 2.9375 0.0625 C4.11431867 4.08329712 4.06068906 5.77670139 2.375 9.6875 C0.17591671 13.14320231 -2.45198499 15.10026358 -6.0625 17.0625 C-6.7225 17.0625 -7.3825 17.0625 -8.0625 17.0625 C-7.7325 18.7125 -7.4025 20.3625 -7.0625 22.0625 C-2.23807816 20.79303486 -2.23807816 20.79303486 0.9375 17.0625 C1.5975 17.0625 2.2575 17.0625 2.9375 17.0625 C2.71983948 20.87155906 1.94355451 22.05616389 -0.75 24.875 C-4.34641598 27.24999169 -5.86079215 27.90284157 -10.0625 27.0625 C-12.96529939 24.74026049 -13.06150483 23.07088787 -13.5 19.375 C-13.24611572 13.18945574 -10.73247095 7.45797215 -6.375 3.0625 C-5.611875 2.4025 -4.84875 1.7425 -4.0625 1.0625 C-3.0625 0.0625 -3.0625 0.0625 0 0 Z M-3.0625 4.0625 C-6.07954885 7.2624003 -7.56140042 9.67787866 -8.0625 14.0625 C-5.14732708 12.98848892 -3.28439824 12.28439824 -1.0625 10.0625 C-0.89568891 6.97902174 -0.89568891 6.97902174 -1.0625 4.0625 C-1.7225 4.0625 -2.3825 4.0625 -3.0625 4.0625 Z " fill="#F2125E" transform="translate(306.0625,45.9375)"/>
<path d="M0 0 C1.4540625 0.0309375 1.4540625 0.0309375 2.9375 0.0625 C4.11431867 4.08329712 4.06068906 5.77670139 2.375 9.6875 C0.17591671 13.14320231 -2.45198499 15.10026358 -6.0625 17.0625 C-6.7225 17.0625 -7.3825 17.0625 -8.0625 17.0625 C-7.7325 18.7125 -7.4025 20.3625 -7.0625 22.0625 C-2.23807816 20.79303486 -2.23807816 20.79303486 0.9375 17.0625 C1.5975 17.0625 2.2575 17.0625 2.9375 17.0625 C2.71983948 20.87155906 1.94355451 22.05616389 -0.75 24.875 C-4.34641598 27.24999169 -5.86079215 27.90284157 -10.0625 27.0625 C-12.96529939 24.74026049 -13.06150483 23.07088787 -13.5 19.375 C-13.24611572 13.18945574 -10.73247095 7.45797215 -6.375 3.0625 C-5.611875 2.4025 -4.84875 1.7425 -4.0625 1.0625 C-3.0625 0.0625 -3.0625 0.0625 0 0 Z M-3.0625 4.0625 C-6.07954885 7.2624003 -7.56140042 9.67787866 -8.0625 14.0625 C-5.14732708 12.98848892 -3.28439824 12.28439824 -1.0625 10.0625 C-0.89568891 6.97902174 -0.89568891 6.97902174 -1.0625 4.0625 C-1.7225 4.0625 -2.3825 4.0625 -3.0625 4.0625 Z " fill="#F2125E" transform="translate(53.0625,45.9375)"/>
<path d="M0 0 C0.33 1.65 0.66 3.3 1 5 C1.721875 4.175 2.44375 3.35 3.1875 2.5 C6 0 6 0 8.8125 -0.3125 C9.534375 -0.209375 10.25625 -0.10625 11 0 C11 1.98 11 3.96 11 6 C9.02 6.99 9.02 6.99 7 8 C6.67 7.34 6.34 6.68 6 6 C1.14019471 10.18948732 -0.66690128 15.14895929 -1.875 21.3125 C-2.24625 22.529375 -2.6175 23.74625 -3 25 C-4.65 25.66 -6.3 26.32 -8 27 C-7.01 20.07 -6.02 13.14 -5 6 C-6.32 6.99 -7.64 7.98 -9 9 C-8.6507442 5.85669777 -8.16074267 4.20508548 -6.1875 1.6875 C-4 0 -4 0 0 0 Z " fill="#F2125E" transform="translate(321,46)"/>
<path d="M0 0 C1.16332913 3.45744671 0.81323327 5.8997308 0.0625 9.4375 C-0.69494881 13.04416023 -1.11380492 16.31138156 -1 20 C-0.01 19.01 0.98 18.02 2 17 C1.68279301 20.48927692 1.33692769 22.55850854 -0.8125 25.375 C-3 27 -3 27 -7 27 C-7.24091535 19.7725395 -6.34495828 13.09705662 -5 6 C-5.99 7.485 -5.99 7.485 -7 9 C-7.66 9 -8.32 9 -9 9 C-8.6507442 5.85669777 -8.16074267 4.20508548 -6.1875 1.6875 C-4 0 -4 0 0 0 Z " fill="#F2125E" transform="translate(261,46)"/>
<path d="M0 0 C1.16332913 3.45744671 0.81323327 5.8997308 0.0625 9.4375 C-0.69494881 13.04416023 -1.11380492 16.31138156 -1 20 C-0.01 19.01 0.98 18.02 2 17 C1.68279301 20.48927692 1.33692769 22.55850854 -0.8125 25.375 C-3 27 -3 27 -7 27 C-7.24091535 19.7725395 -6.34495828 13.09705662 -5 6 C-5.99 7.485 -5.99 7.485 -7 9 C-7.66 9 -8.32 9 -9 9 C-8.6507442 5.85669777 -8.16074267 4.20508548 -6.1875 1.6875 C-4 0 -4 0 0 0 Z " fill="#F2125E" transform="translate(148,46)"/>
<path d="M0 0 C1.16332913 3.45744671 0.81323327 5.8997308 0.0625 9.4375 C-0.69494881 13.04416023 -1.11380492 16.31138156 -1 20 C-0.01 19.01 0.98 18.02 2 17 C1.68279301 20.48927692 1.33692769 22.55850854 -0.8125 25.375 C-3 27 -3 27 -7 27 C-7.24091535 19.7725395 -6.34495828 13.09705662 -5 6 C-5.99 7.485 -5.99 7.485 -7 9 C-7.66 9 -8.32 9 -9 9 C-8.6507442 5.85669777 -8.16074267 4.20508548 -6.1875 1.6875 C-4 0 -4 0 0 0 Z " fill="#F2125E" transform="translate(95,46)"/>
<path d="M0 0 C3.99612795 0.7835545 5.73670484 2.49455515 8.57421875 5.3125 C10.22873194 6.94054373 10.22873194 6.94054373 13.1875 6.625 C13.5175 4.975 13.8475 3.325 14.1875 1.625 C15.1775 1.625 16.1675 1.625 17.1875 1.625 C16.72124641 5.72803158 16.34686057 8.79246984 13.1875 11.625 C10.4375 12.25 10.4375 12.25 7.1875 11.625 C5.26320003 10.1838576 3.58605208 8.6488838 1.8984375 6.9375 C0.01794197 5.21922687 0.01794197 5.21922687 -3.8125 5.625 C-4.1425 7.275 -4.4725 8.925 -4.8125 10.625 C-5.8025 10.625 -6.7925 10.625 -7.8125 10.625 C-7.50279053 7.21819587 -7.12483339 5.06458033 -5.125 2.25 C-2.8125 0.625 -2.8125 0.625 0 0 Z " fill="#F2125E" transform="translate(393.8125,51.375)"/>
<path d="M0 0 C0.99 0 1.98 0 3 0 C2.75 3.375 2.75 3.375 2 7 C-0.0625 8.4375 -0.0625 8.4375 -2 9 C-2.6875 7.3125 -2.6875 7.3125 -3 5 C-1.75 2.25 -1.75 2.25 0 0 Z " fill="#F2125E" transform="translate(342,35)"/>
<path d="M0 0 C0.99 0 1.98 0 3 0 C2.75 3.375 2.75 3.375 2 7 C-0.0625 8.4375 -0.0625 8.4375 -2 9 C-2.6875 7.3125 -2.6875 7.3125 -3 5 C-1.75 2.25 -1.75 2.25 0 0 Z " fill="#F2125E" transform="translate(261,35)"/>
<path d="M0 0 C0.99 0 1.98 0 3 0 C2.75 3.375 2.75 3.375 2 7 C-0.0625 8.4375 -0.0625 8.4375 -2 9 C-2.6875 7.3125 -2.6875 7.3125 -3 5 C-1.75 2.25 -1.75 2.25 0 0 Z " fill="#F2125E" transform="translate(148,35)"/>
<path d="M0 0 C0.99 0 1.98 0 3 0 C2.75 3.375 2.75 3.375 2 7 C-0.0625 8.4375 -0.0625 8.4375 -2 9 C-2.6875 7.3125 -2.6875 7.3125 -3 5 C-1.75 2.25 -1.75 2.25 0 0 Z " fill="#F2125E" transform="translate(95,35)"/>
</svg>
